interactions:
- request:
    body: null
    headers:
      Accept:
      - '*/*'
      Accept-Encoding:
      - gzip, deflate
      Connection:
      - keep-alive
      User-Agent:
      - python-requests/2.28.2
    method: GET
    uri: https://certification.canonical.com/api/v2/certified-releases/?format=json&limit=0&pagination=limitoffset
  response:
    body:
      string: '{"count":8,"next":null,"previous":null,"results":[{"release":"Core
        22","desktops":5,"laptops":0,"servers":0,"soc":0,"smart_core":13,"total":18},{"release":"24.04
        LTS","desktops":0,"laptops":0,"servers":2,"soc":0,"smart_core":8,"total":10},{"release":"20.04
        LTS","desktops":204,"laptops":431,"servers":460,"soc":5,"smart_core":45,"total":1165},{"release":"Core
        20","desktops":0,"laptops":0,"servers":0,"soc":0,"smart_core":26,"total":26},{"release":"Core
        18","desktops":2,"laptops":0,"servers":0,"soc":0,"smart_core":5,"total":7},{"release":"18.04
        LTS","desktops":115,"laptops":254,"servers":397,"soc":10,"smart_core":6,"total":792},{"release":"18.04","desktops":0,"laptops":0,"servers":2,"soc":0,"smart_core":0,"total":2},{"release":"22.04
        LTS","desktops":145,"laptops":269,"servers":496,"soc":0,"smart_core":48,"total":1015}]}'
    headers:
      Allow:
      - GET, HEAD, OPTIONS
      Connection:
      - keep-alive
      Content-Length:
      - '827'
      Content-Type:
      - application/json
      Date:
      - Tue, 30 Apr 2024 09:47:23 GMT
      Strict-Transport-Security:
      - max-age=15724800; includeSubDomains
      Vary:
      - Accept, Cookie
      X-QueryInspect-Duplicate-SQL-Queries:
      - '0'
      X-QueryInspect-Num-SQL-Queries:
      - '2'
      X-QueryInspect-Total-Request-Time:
      - 108 ms
      X-QueryInspect-Total-SQL-Time:
      - 97 ms
    status:
      code: 200
      message: OK
- request:
    body: null
    headers:
      Accept:
      - '*/*'
      Accept-Encoding:
      - gzip, deflate
      Connection:
      - keep-alive
      User-Agent:
      - python-requests/2.28.2
    method: GET
    uri: https://certification.canonical.com/api/v2/certified-vendors/?format=json&limit=0&pagination=limitoffset
  response:
    body:
      string: '{"count":52,"next":null,"previous":null,"results":[{"make":"Dell","desktops":143,"laptops":494,"servers":15,"soc":0,"smart_core":9,"total":697},{"make":"Lenovo","desktops":136,"laptops":245,"servers":119,"soc":0,"smart_core":5,"total":526},{"make":"HP","desktops":137,"laptops":170,"servers":2,"soc":0,"smart_core":0,"total":326},{"make":"Supermicro","desktops":0,"laptops":0,"servers":111,"soc":0,"smart_core":0,"total":111},{"make":"HPE","desktops":0,"laptops":0,"servers":100,"soc":0,"smart_core":0,"total":100},{"make":"Dell
        Technologies","desktops":0,"laptops":0,"servers":98,"soc":0,"smart_core":0,"total":98},{"make":"ASUSTeK
        Computer Inc.","desktops":0,"laptops":0,"servers":74,"soc":0,"smart_core":1,"total":75},{"make":"New
        H3C Technologies Co., Ltd","desktops":0,"laptops":0,"servers":58,"soc":0,"smart_core":0,"total":58},{"make":"IBM","desktops":0,"laptops":0,"servers":51,"soc":0,"smart_core":0,"total":51},{"make":"Huawei
        Technologies Co., Ltd.","desktops":0,"laptops":0,"servers":44,"soc":6,"smart_core":0,"total":50},{"make":"Cisco
        UCS","desktops":0,"laptops":0,"servers":36,"soc":0,"smart_core":0,"total":36},{"make":"QUANTA
        Computer Inc","desktops":0,"laptops":0,"servers":35,"soc":0,"smart_core":0,"total":35},{"make":"Fujitsu
        Limited.","desktops":0,"laptops":0,"servers":35,"soc":0,"smart_core":0,"total":35},{"make":"Inspur
        Electronic Information Industry Co., Ltd.","desktops":0,"laptops":0,"servers":26,"soc":0,"smart_core":0,"total":26},{"make":"xFusion
        Digital Technologies Co., Ltd.","desktops":0,"laptops":0,"servers":24,"soc":0,"smart_core":0,"total":24},{"make":"ADVANTECH","desktops":0,"laptops":0,"servers":0,"soc":0,"smart_core":23,"total":23},{"make":"Giga
        Computing","desktops":0,"laptops":0,"servers":19,"soc":0,"smart_core":0,"total":19},{"make":"IEIT
        SYSTEMS Co.,Ltd.","desktops":0,"laptops":0,"servers":18,"soc":0,"smart_core":0,"total":18},{"make":"Raspberry
        Pi Foundation","desktops":0,"laptops":0,"servers":0,"soc":0,"smart_core":17,"total":17},{"make":"NEC
        Corporation","desktops":0,"laptops":0,"servers":12,"soc":0,"smart_core":0,"total":12},{"make":"Asus","desktops":0,"laptops":0,"servers":11,"soc":0,"smart_core":1,"total":12},{"make":"ADLink
        Technology, Inc.","desktops":5,"laptops":0,"servers":0,"soc":0,"smart_core":5,"total":10},{"make":"Ericsson,
        Inc.","desktops":0,"laptops":0,"servers":7,"soc":0,"smart_core":0,"total":7},{"make":"Intel
        Corp.","desktops":2,"laptops":0,"servers":0,"soc":0,"smart_core":4,"total":6},{"make":"Xilinx","desktops":2,"laptops":0,"servers":0,"soc":0,"smart_core":4,"total":6},{"make":"nVidia","desktops":0,"laptops":0,"servers":5,"soc":0,"smart_core":0,"total":6},{"make":"Kontron","desktops":0,"laptops":0,"servers":5,"soc":0,"smart_core":0,"total":5},{"make":"AAEON
        Technology Inc.","desktops":0,"laptops":0,"servers":0,"soc":0,"smart_core":5,"total":5},{"make":"Cavium,
        Inc.","desktops":0,"laptops":0,"servers":3,"soc":2,"smart_core":0,"total":5},{"make":"Eurotech","desktops":0,"laptops":0,"servers":0,"soc":0,"smart_core":5,"total":5},{"make":"OnLogic","desktops":0,"laptops":0,"servers":0,"soc":0,"smart_core":4,"total":4},{"make":"Mediatek
        Inc.","desktops":0,"laptops":0,"servers":0,"soc":0,"smart_core":4,"total":4},{"make":"DFI","desktops":0,"laptops":0,"servers":0,"soc":0,"smart_core":4,"total":4},{"make":"Fujitsu","desktops":0,"laptops":0,"servers":4,"soc":0,"smart_core":0,"total":4},{"make":"Cisco
        Systems","desktops":0,"laptops":0,"servers":3,"soc":0,"smart_core":0,"total":3},{"make":"Mellanox
        Technologies","desktops":0,"laptops":0,"servers":0,"soc":0,"smart_core":1,"total":3},{"make":"Honeywell,
        Inc.","desktops":0,"laptops":0,"servers":0,"soc":0,"smart_core":3,"total":3},{"make":"Ampere
        Computing, LLC","desktops":0,"laptops":0,"servers":0,"soc":2,"smart_core":0,"total":2},{"make":"Wiwynn","desktops":0,"laptops":0,"servers":2,"soc":0,"smart_core":0,"total":2},{"make":"GIGA-BYTE
        TECHNOLOGY CO., LTD.","desktops":0,"laptops":0,"servers":2,"soc":0,"smart_core":0,"total":2},{"make":"ASRock
        Industrial","desktops":0,"laptops":0,"servers":0,"soc":0,"smart_core":2,"total":2},{"make":"ZTE","desktops":0,"laptops":0,"servers":2,"soc":0,"smart_core":0,"total":2},{"make":"Rigado","desktops":0,"laptops":0,"servers":0,"soc":0,"smart_core":2,"total":2},{"make":"InoNet
        Computer GmbH","desktops":0,"laptops":0,"servers":0,"soc":0,"smart_core":1,"total":1},{"make":"Siemens
        AG","desktops":0,"laptops":0,"servers":0,"soc":0,"smart_core":1,"total":1},{"make":"Axiomtek","desktops":0,"laptops":0,"servers":0,"soc":0,"smart_core":1,"total":1},{"make":"Interactive
        Strength Inc","desktops":0,"laptops":0,"servers":0,"soc":0,"smart_core":1,"total":1},{"make":"Element
        Biosciences","desktops":0,"laptops":0,"servers":0,"soc":0,"smart_core":1,"total":1},{"make":"IEI","desktops":1,"laptops":0,"servers":0,"soc":0,"smart_core":0,"total":1},{"make":"FETCi","desktops":0,"laptops":0,"servers":1,"soc":0,"smart_core":0,"total":1},{"make":"Avnet
        IoT Gateway","desktops":0,"laptops":0,"servers":0,"soc":0,"smart_core":1,"total":1},{"make":"Tyrone
        Systems","desktops":0,"laptops":0,"servers":1,"soc":0,"smart_core":0,"total":1}]}'
    headers:
      Allow:
      - GET, HEAD, OPTIONS
      Connection:
      - keep-alive
      Content-Length:
      - '5108'
      Content-Type:
      - application/json
      Date:
      - Tue, 30 Apr 2024 09:47:23 GMT
      Strict-Transport-Security:
      - max-age=15724800; includeSubDomains
      Vary:
      - Accept, Cookie
      X-QueryInspect-Duplicate-SQL-Queries:
      - '0'
      X-QueryInspect-Num-SQL-Queries:
      - '2'
      X-QueryInspect-Total-Request-Time:
      - 119 ms
      X-QueryInspect-Total-SQL-Time:
      - 107 ms
    status:
      code: 200
      message: OK
- request:
    body: null
    headers:
      Accept:
      - '*/*'
      Accept-Encoding:
      - gzip, deflate
      Connection:
      - keep-alive
      User-Agent:
      - python-requests/2.28.2
    method: GET
    uri: https://certification.canonical.com/api/v2/certified-configurations/?format=json&limit=20&offset=0&vendor=Dell&query=xps&category__in=Laptop%2CDesktop&pagination=limitoffset
  response:
    body:
      string: '{"count":37,"next":"https://certification.canonical.com/api/v2/certified-configurations/?category__in=Laptop%2CDesktop&format=json&limit=20&offset=20&pagination=limitoffset&query=xps&vendor=Dell","previous":null,"results":[{"canonical_id":"201906-27119","make":"Dell","model":"XPS
        13 7390","level":"Certified Pre-Install","release":"18.04 LTS","category":"Laptop","major_release":"18.04
        LTS","completed":"2019-09-27T21:22:33.103146+01:00","resource_uri":"/api/v2/certified-configurations/201906-27119"},{"canonical_id":"201906-27131","make":"Dell","model":"XPS
        13 7390","level":"Certified Pre-Install","release":"18.04 LTS","category":"Laptop","major_release":"18.04
        LTS","completed":"2019-09-27T21:20:13.682473+01:00","resource_uri":"/api/v2/certified-configurations/201906-27131"},{"canonical_id":"201906-27151","make":"Dell","model":"XPS
        13 7390","level":"Certified Pre-Install","release":"18.04 LTS","category":"Laptop","major_release":"18.04
        LTS","completed":"2019-09-27T21:23:47.568870+01:00","resource_uri":"/api/v2/certified-configurations/201906-27151"},{"canonical_id":"201910-27449","make":"Dell","model":"XPS
        13 9300","level":"Certified Pre-Install","release":"20.04 LTS","category":"Laptop","major_release":"20.04
        LTS","completed":"2020-05-14T00:56:30.180711+01:00","resource_uri":"/api/v2/certified-configurations/201910-27449"},{"canonical_id":"201910-27450","make":"Dell","model":"XPS
        13 9300","level":"Certified Pre-Install","release":"20.04 LTS","category":"Laptop","major_release":"20.04
        LTS","completed":"2020-05-14T00:55:14.224520+01:00","resource_uri":"/api/v2/certified-configurations/201910-27450"},{"canonical_id":"201911-27454","make":"Dell","model":"XPS
        13 9300","level":"Certified Pre-Install","release":"20.04 LTS","category":"Laptop","major_release":"20.04
        LTS","completed":"2020-05-14T00:57:11.782255+01:00","resource_uri":"/api/v2/certified-configurations/201911-27454"},{"canonical_id":"201911-27457","make":"Dell","model":"XPS
        13 9300","level":"Certified Pre-Install","release":"18.04 LTS","category":"Laptop","major_release":"18.04
        LTS","completed":"2020-02-18T21:26:25.078396Z","resource_uri":"/api/v2/certified-configurations/201911-27457"},{"canonical_id":"201911-27469","make":"Dell","model":"XPS
        13 9300","level":"Certified Pre-Install","release":"18.04 LTS","category":"Laptop","major_release":"18.04
        LTS","completed":"2020-02-18T21:29:09.773765Z","resource_uri":"/api/v2/certified-configurations/201911-27469"},{"canonical_id":"202007-28040","make":"Dell","model":"XPS
        13 9310","level":"Certified Pre-Install","release":"20.04 LTS","category":"Laptop","major_release":"20.04
        LTS","completed":"2020-10-02T18:40:33.552657+01:00","resource_uri":"/api/v2/certified-configurations/202007-28040"},{"canonical_id":"202007-28045","make":"Dell","model":"XPS
        13 9310","level":"Certified Pre-Install","release":"20.04 LTS","category":"Laptop","major_release":"20.04
        LTS","completed":"2020-10-02T18:39:43.223649+01:00","resource_uri":"/api/v2/certified-configurations/202007-28045"},{"canonical_id":"202007-28046","make":"Dell","model":"XPS
        13 9310","level":"Certified Pre-Install","release":"20.04 LTS","category":"Laptop","major_release":"20.04
        LTS","completed":"2020-10-02T18:38:09.374209+01:00","resource_uri":"/api/v2/certified-configurations/202007-28046"},{"canonical_id":"202007-28063","make":"Dell","model":"XPS
        13 9310","level":"Certified Pre-Install","release":"20.04 LTS","category":"Laptop","major_release":"20.04
        LTS","completed":"2020-10-02T18:38:51.561750+01:00","resource_uri":"/api/v2/certified-configurations/202007-28063"},{"canonical_id":"201708-25695","make":"Dell","model":"XPS
        13 9370","level":"Certified Pre-Install","release":"18.04 LTS","category":"Laptop","major_release":"18.04
        LTS","completed":"2018-07-26T16:58:21.731947+01:00","resource_uri":"/api/v2/certified-configurations/201708-25695"},{"canonical_id":"201712-26015","make":"Dell","model":"XPS
        13 9370","level":"Certified Pre-Install","release":"18.04 LTS","category":"Laptop","major_release":"18.04
        LTS","completed":"2018-07-26T16:57:05.823353+01:00","resource_uri":"/api/v2/certified-configurations/201712-26015"},{"canonical_id":"201712-26038","make":"Dell","model":"XPS
        13 9370","level":"Certified Pre-Install","release":"18.04 LTS","category":"Laptop","major_release":"18.04
        LTS","completed":"2018-07-26T16:56:05.088761+01:00","resource_uri":"/api/v2/certified-configurations/201712-26038"},{"canonical_id":"201810-26510","make":"Dell","model":"XPS
        13 9380","level":"Certified Pre-Install","release":"18.04 LTS","category":"Laptop","major_release":"18.04
        LTS","completed":"2019-01-11T21:53:46.964184Z","resource_uri":"/api/v2/certified-configurations/201810-26510"},{"canonical_id":"201810-26512","make":"Dell","model":"XPS
        13 9380","level":"Certified Pre-Install","release":"18.04 LTS","category":"Laptop","major_release":"18.04
        LTS","completed":"2019-01-11T21:54:44.236586Z","resource_uri":"/api/v2/certified-configurations/201810-26512"},{"canonical_id":"201810-26515","make":"Dell","model":"XPS
        13 9380","level":"Certified Pre-Install","release":"18.04 LTS","category":"Laptop","major_release":"18.04
        LTS","completed":"2019-01-11T21:52:46.041281Z","resource_uri":"/api/v2/certified-configurations/201810-26515"},{"canonical_id":"201810-26535","make":"Dell","model":"XPS
        13 9380","level":"Certified Pre-Install","release":"18.04 LTS","category":"Laptop","major_release":"18.04
        LTS","completed":"2019-01-11T21:55:47.382570Z","resource_uri":"/api/v2/certified-configurations/201810-26535"},{"canonical_id":"202112-29801","make":"Dell","model":"XPS
        13 Plus (Core i5-1240P)","level":"Certified Pre-Install","release":"22.04
        LTS","category":"Laptop","major_release":"22.04 LTS","completed":"2022-07-18T14:15:12.019364+01:00","resource_uri":"/api/v2/certified-configurations/202112-29801"}]}'
    headers:
      Allow:
      - GET, HEAD, OPTIONS
      Connection:
      - keep-alive
      Content-Length:
      - '5810'
      Content-Type:
      - application/json
      Date:
      - Tue, 30 Apr 2024 09:47:24 GMT
      Strict-Transport-Security:
      - max-age=15724800; includeSubDomains
      Vary:
      - Accept, Cookie
      X-QueryInspect-Duplicate-SQL-Queries:
      - '0'
      X-QueryInspect-Num-SQL-Queries:
      - '6'
      X-QueryInspect-Total-Request-Time:
      - 228 ms
      X-QueryInspect-Total-SQL-Time:
      - 203 ms
    status:
      code: 200
      message: OK
version: 1
