interactions:
- request:
    body: null
    headers:
      Accept:
      - '*/*'
      Accept-Encoding:
      - gzip, deflate
      Connection:
      - keep-alive
      User-Agent:
      - python-requests/2.28.2
    method: GET
    uri: https://partners.ubuntu.com/partners.json?name=Hewlett+Packard
  response:
    body:
      string: '[{"id": 369, "name": "Hewlett Packard", "slug": "hewlett-packard",
        "published": true, "logo": "https://assets.ubuntu.com/v1/cd5f636a-hp-logo.png",
        "partner_website": "http://www8.hp.com", "fallback_website": "http://www8.hp.com",
        "short_description": "Our vision is to create technology that makes life better
        for everyone, everywhere \u2014 every person, every organization, and every
        community around the globe. This motivates us \u2014 inspires us \u2014 to
        do what we do. We won\u2019t stop pushing ahead, because you won\u2019t stop
        pushing ahead. This is a new HP. Keep reinventing.", "long_description": "",
        "featured": true, "always_featured": true, "dedicated_partner_page": false,
        "notes": "", "tags_label": "", "technology": [{"id": 3, "name": "Personal
        computing/devices"}], "programme": [{"id": 10, "name": "Desktop"}], "service_offered":
        [{"id": 11, "name": "Hardware manufacturer"}], "partner_type": [], "insightstag_set":
        [], "link_set": [], "quote_set": [], "tag_set": [], "text_set": []}]'
    headers:
      accept-ranges:
      - bytes
      content-length:
      - '1006'
      content-type:
      - application.json
      cross-origin-opener-policy:
      - same-origin
      date:
      - Tue, 30 Apr 2024 09:47:24 GMT
      referrer-policy:
      - same-origin
      server:
      - nginx/1.14.0 (Ubuntu)
      strict-transport-security:
      - max-age=15724800
      x-cache-status:
      - HIT from content-cache-il3/0
      x-content-type-options:
      - nosniff
      x-frame-options:
      - DENY
      x-request-id:
      - 95917deca2f681084e395d38289983cd
      x-vcs-revision:
      - 1697765408-2f1353b
    status:
      code: 200
      message: ''
- request:
    body: null
    headers:
      Accept:
      - '*/*'
      Accept-Encoding:
      - gzip, deflate
      Connection:
      - keep-alive
      User-Agent:
      - python-requests/2.28.2
    method: GET
    uri: https://certification.canonical.com/api/v2/certified-releases/?format=json&limit=0&pagination=limitoffset
  response:
    body:
      string: '{"count":8,"next":null,"previous":null,"results":[{"release":"Core
        22","desktops":5,"laptops":0,"servers":0,"soc":0,"smart_core":13,"total":18},{"release":"24.04
        LTS","desktops":0,"laptops":0,"servers":2,"soc":0,"smart_core":8,"total":10},{"release":"20.04
        LTS","desktops":204,"laptops":431,"servers":460,"soc":5,"smart_core":45,"total":1165},{"release":"Core
        20","desktops":0,"laptops":0,"servers":0,"soc":0,"smart_core":26,"total":26},{"release":"Core
        18","desktops":2,"laptops":0,"servers":0,"soc":0,"smart_core":5,"total":7},{"release":"18.04
        LTS","desktops":115,"laptops":254,"servers":397,"soc":10,"smart_core":6,"total":792},{"release":"18.04","desktops":0,"laptops":0,"servers":2,"soc":0,"smart_core":0,"total":2},{"release":"22.04
        LTS","desktops":145,"laptops":269,"servers":496,"soc":0,"smart_core":48,"total":1015}]}'
    headers:
      Allow:
      - GET, HEAD, OPTIONS
      Connection:
      - keep-alive
      Content-Length:
      - '827'
      Content-Type:
      - application/json
      Date:
      - Tue, 30 Apr 2024 09:47:25 GMT
      Strict-Transport-Security:
      - max-age=15724800; includeSubDomains
      Vary:
      - Accept, Cookie
      X-QueryInspect-Duplicate-SQL-Queries:
      - '0'
      X-QueryInspect-Num-SQL-Queries:
      - '2'
      X-QueryInspect-Total-Request-Time:
      - 92 ms
      X-QueryInspect-Total-SQL-Time:
      - 81 ms
    status:
      code: 200
      message: OK
- request:
    body: null
    headers:
      Accept:
      - '*/*'
      Accept-Encoding:
      - gzip, deflate
      Connection:
      - keep-alive
      User-Agent:
      - python-requests/2.28.2
    method: GET
    uri: https://certification.canonical.com/api/v2/certified-configurations/?format=json&limit=20&offset=0&vendor=HP&pagination=limitoffset
  response:
    body:
      string: '{"count":326,"next":"https://certification.canonical.com/api/v2/certified-configurations/?format=json&limit=20&offset=20&pagination=limitoffset&vendor=HP","previous":null,"results":[{"canonical_id":"201810-26595","make":"HP","model":"240
        G7 Notebook PC","level":"Certified Pre-Install","release":"18.04 LTS","category":"Laptop","major_release":"18.04
        LTS","completed":"2019-01-09T22:13:41.124824Z","resource_uri":"/api/v2/certified-configurations/201810-26595"},{"canonical_id":"201810-26602","make":"HP","model":"245
        G7 Notebook PC","level":"Certified Pre-Install","release":"18.04 LTS","category":"Laptop","major_release":"18.04
        LTS","completed":"2019-01-09T22:15:10.895493Z","resource_uri":"/api/v2/certified-configurations/201810-26602"},{"canonical_id":"202001-27654","make":"HP","model":"280
        G5 Microtower PC","level":"Certified Pre-Install","release":"18.04 LTS","category":"Desktop","major_release":"18.04
        LTS","completed":"2020-03-11T23:25:59.314760Z","resource_uri":"/api/v2/certified-configurations/202001-27654"},{"canonical_id":"201912-27554","make":"HP","model":"285
        G3 Microtower PC","level":"Certified Pre-Install","release":"18.04 LTS","category":"Desktop","major_release":"18.04
        LTS","completed":"2020-03-11T23:30:15.002267Z","resource_uri":"/api/v2/certified-configurations/201912-27554"},{"canonical_id":"202005-27941","make":"HP","model":"400
        G6 Desktop Mini PC","level":"Certified Pre-Install","release":"20.04 LTS","category":"Desktop","major_release":"20.04
        LTS","completed":"2021-01-30T00:25:35.515499Z","resource_uri":"/api/v2/certified-configurations/202005-27941"},{"canonical_id":"201812-26719","make":"HP","model":"640
        G4 Notebook PC","level":"Certified Pre-Install","release":"18.04 LTS","category":"Laptop","major_release":"18.04
        LTS","completed":"2019-03-14T23:11:24.356926Z","resource_uri":"/api/v2/certified-configurations/201812-26719"},{"canonical_id":"201904-26981","make":"HP","model":"All-in-One
        22-c040la/22-c041la","level":"Certified Pre-Install","release":"18.04 LTS","category":"Desktop","major_release":"18.04
        LTS","completed":"2019-07-27T01:18:45.657762+01:00","resource_uri":"/api/v2/certified-configurations/201904-26981"},{"canonical_id":"201904-26983","make":"HP","model":"All-in-One
        22-c042la/c043la","level":"Certified Pre-Install","release":"18.04 LTS","category":"Desktop","major_release":"18.04
        LTS","completed":"2019-07-27T01:19:43.005881+01:00","resource_uri":"/api/v2/certified-configurations/201904-26983"},{"canonical_id":"202105-29123","make":"HP","model":"Elite
        Dragonfly G2 Notebook PC","level":"Certified Pre-Install","release":"20.04
        LTS","category":"Laptop","major_release":"20.04 LTS","completed":"2021-07-27T12:20:14.983595+01:00","resource_uri":"/api/v2/certified-configurations/202105-29123"},{"canonical_id":"202111-29603","make":"HP","model":"Elite
        Mini 800 G9 Desktop PC (Core i9-12900 + Intel Graphics)","level":"Certified
        Pre-Install","release":"20.04 LTS","category":"Desktop","major_release":"20.04
        LTS","completed":"2022-07-20T14:10:11.306834+01:00","resource_uri":"/api/v2/certified-configurations/202111-29603"},{"canonical_id":"202111-29604","make":"HP","model":"Elite
        Mini 800 G9 Desktop PC (Core i9-12900T + Intel Graphics)","level":"Certified
        Pre-Install","release":"20.04 LTS","category":"Desktop","major_release":"20.04
        LTS","completed":"2022-07-20T14:10:49.936215+01:00","resource_uri":"/api/v2/certified-configurations/202111-29604"},{"canonical_id":"202201-29881","make":"HP","model":"Elite
        Mini 800 G9 Desktop PC (Core i9-12900T + RTX 3050Ti)","level":"Certified Pre-Install","release":"20.04
        LTS","category":"Desktop","major_release":"20.04 LTS","completed":"2022-07-20T14:11:30.106045+01:00","resource_uri":"/api/v2/certified-configurations/202201-29881"},{"canonical_id":"202304-31492","make":"HP","model":"Elite
        Mini 800 G9 Desktop PC (i3, 3050 Ti)","level":"Certified Pre-Install","release":"22.04
        LTS","category":"Desktop","major_release":"22.04 LTS","completed":"2023-06-06T14:01:08.423831+01:00","resource_uri":"/api/v2/certified-configurations/202304-31492"},{"canonical_id":"202304-31497","make":"HP","model":"Elite
        Mini 800 G9 Desktop PC (i7)","level":"Certified Pre-Install","release":"22.04
        LTS","category":"Desktop","major_release":"22.04 LTS","completed":"2023-06-06T14:05:29.005932+01:00","resource_uri":"/api/v2/certified-configurations/202304-31497"},{"canonical_id":"202304-31496","make":"HP","model":"Elite
        Mini 800 G9 Desktop PC (i9)","level":"Certified Pre-Install","release":"22.04
        LTS","category":"Desktop","major_release":"22.04 LTS","completed":"2023-06-06T14:03:56.354205+01:00","resource_uri":"/api/v2/certified-configurations/202304-31496"},{"canonical_id":"202211-30885","make":"HP","model":"Elite
        SFF 600 G9 Desktop PC","level":"Certified Pre-Install","release":"22.04 LTS","category":"Desktop","major_release":"22.04
        LTS","completed":"2022-12-09T15:46:38.333326Z","resource_uri":"/api/v2/certified-configurations/202211-30885"},{"canonical_id":"202111-29620","make":"HP","model":"Elite
        SFF 600 G9 Desktop PC ( Intel Graphics - Realtek Wireless)","level":"Certified
        Pre-Install","release":"20.04 LTS","category":"Desktop","major_release":"20.04
        LTS","completed":"2022-04-08T16:07:11.029845+01:00","resource_uri":"/api/v2/certified-configurations/202111-29620"},{"canonical_id":"202111-29619","make":"HP","model":"Elite
        SFF 600 G9 Desktop PC ( Intel Graphics / Wireless)","level":"Certified Pre-Install","release":"20.04
        LTS","category":"Desktop","major_release":"20.04 LTS","completed":"2022-04-08T16:06:24.366781+01:00","resource_uri":"/api/v2/certified-configurations/202111-29619"},{"canonical_id":"202111-29618","make":"HP","model":"Elite
        SFF 600 G9 Desktop PC (T400 - Intel Wireless)","level":"Certified Pre-Install","release":"20.04
        LTS","category":"Desktop","major_release":"20.04 LTS","completed":"2022-04-08T16:05:34.571361+01:00","resource_uri":"/api/v2/certified-configurations/202111-29618"},{"canonical_id":"202111-29691","make":"HP","model":"Elite
        SFF 800 G9 Desktop PC (Intel Graphics)","level":"Certified Pre-Install","release":"20.04
        LTS","category":"Desktop","major_release":"20.04 LTS","completed":"2022-04-01T16:41:57.383501+01:00","resource_uri":"/api/v2/certified-configurations/202111-29691"}]}'
    headers:
      Allow:
      - GET, HEAD, OPTIONS
      Connection:
      - keep-alive
      Content-Length:
      - '6238'
      Content-Type:
      - application/json
      Date:
      - Tue, 30 Apr 2024 09:47:25 GMT
      Strict-Transport-Security:
      - max-age=15724800; includeSubDomains
      Vary:
      - Accept, Cookie
      X-QueryInspect-Duplicate-SQL-Queries:
      - '0'
      X-QueryInspect-Num-SQL-Queries:
      - '6'
      X-QueryInspect-Total-Request-Time:
      - 130 ms
      X-QueryInspect-Total-SQL-Time:
      - 110 ms
    status:
      code: 200
      message: OK
version: 1
